// Jest Snapshot v1, https://goo.gl/fbAQLP

exports[`<ButtonUI /> renders snapshot correctly 1`] = `
<Button
  active={false}
  className="GoBuddyButton "
  disabled={false}
  type="submit"
  variant="primary"
>
  Button test
</Button>
`;
