<svg width="1920" height="1080" viewBox="0 0 1920 1080" fill="none" xmlns="http://www.w3.org/2000/svg">
<g clip-path="url(#clip0)">
<path d="M1920 0H0V1080H1920V0Z" fill="white"/>
<path d="M1920 0H0V1080H1920V0Z" fill="url(#paint0_linear)"/>
<path d="M1919.5 0.5H0.5V1079.5H1919.5V0.5Z" stroke="#707070"/>
<g opacity="0.31">
<g opacity="0.1">
<path opacity="0.1" d="M220.241 -151.514C56.1136 -151.514 -76.9379 -18.4622 -76.9379 145.665C-76.9379 309.793 56.1136 442.844 220.241 442.844C384.368 442.844 517.42 309.793 517.42 145.665C517.42 -18.4622 384.368 -151.514 220.241 -151.514Z" fill="url(#paint1_linear)"/>
<path opacity="0.1" d="M220.241 -151.014C56.3898 -151.014 -76.4379 -18.186 -76.4379 145.665C-76.4379 309.517 56.3898 442.344 220.241 442.344C384.092 442.344 516.92 309.517 516.92 145.665C516.92 -18.186 384.092 -151.014 220.241 -151.014Z" stroke="#707070"/>
</g>
<g opacity="0.1">
<path opacity="0.1" d="M-195.435 204.916C-471.127 204.916 -694.62 428.409 -694.62 704.101C-694.62 979.794 -471.127 1203.29 -195.435 1203.29C80.2573 1203.29 303.75 979.794 303.75 704.101C303.75 428.409 80.2573 204.916 -195.435 204.916Z" fill="url(#paint2_linear)"/>
<path opacity="0.1" d="M-195.435 205.416C-470.851 205.416 -694.12 428.685 -694.12 704.101C-694.12 979.517 -470.851 1202.79 -195.435 1202.79C79.9811 1202.79 303.25 979.517 303.25 704.101C303.25 428.685 79.9811 205.416 -195.435 205.416Z" stroke="#707070"/>
</g>
<g opacity="0.1">
<path opacity="0.1" d="M425.98 -153.38C312.096 -153.38 219.774 -61.0584 219.774 52.826C219.774 166.71 312.096 259.032 425.98 259.032C539.864 259.032 632.186 166.71 632.186 52.826C632.186 -61.0584 539.864 -153.38 425.98 -153.38Z" fill="url(#paint3_linear)"/>
<path opacity="0.1" d="M425.98 -152.88C312.372 -152.88 220.274 -60.7823 220.274 52.826C220.274 166.434 312.372 258.532 425.98 258.532C539.588 258.532 631.686 166.434 631.686 52.826C631.686 -60.7823 539.588 -152.88 425.98 -152.88Z" stroke="#707070"/>
</g>
<g opacity="0.1">
<path opacity="0.1" d="M17.768 134.935C-146.359 134.935 -279.411 267.987 -279.411 432.114C-279.411 596.242 -146.359 729.293 17.768 729.293C181.895 729.293 314.947 596.242 314.947 432.114C314.947 267.987 181.895 134.935 17.768 134.935Z" fill="url(#paint4_linear)"/>
<path opacity="0.1" d="M17.768 135.435C-146.083 135.435 -278.911 268.263 -278.911 432.114C-278.911 595.966 -146.083 728.793 17.768 728.793C181.619 728.793 314.447 595.966 314.447 432.114C314.447 268.263 181.619 135.435 17.768 135.435Z" stroke="#707070"/>
</g>
<g opacity="0.69">
<path opacity="0.69" d="M220.241 -151.514C56.1136 -151.514 -76.9379 -18.4622 -76.9379 145.665C-76.9379 309.793 56.1136 442.844 220.241 442.844C384.368 442.844 517.42 309.793 517.42 145.665C517.42 -18.4622 384.368 -151.514 220.241 -151.514Z" fill="url(#paint5_linear)"/>
<path opacity="0.69" d="M220.241 -151.014C56.3898 -151.014 -76.4379 -18.186 -76.4379 145.665C-76.4379 309.517 56.3898 442.344 220.241 442.344C384.092 442.344 516.92 309.517 516.92 145.665C516.92 -18.186 384.092 -151.014 220.241 -151.014Z" stroke="#707070"/>
</g>
<g opacity="0.7">
<path opacity="0.7" d="M-627.741 454.508C-765.587 693.265 -683.783 998.561 -445.027 1136.41C-206.27 1274.25 99.0264 1192.45 236.873 953.693C374.719 714.937 292.915 409.64 54.1581 271.794C-184.598 133.948 -489.895 215.752 -627.741 454.508Z" fill="url(#paint6_linear)"/>
<path opacity="0.7" d="M-627.308 454.758C-765.016 693.275 -683.294 998.266 -444.777 1135.97C-206.259 1273.68 98.7315 1191.96 236.44 953.443C374.148 714.926 292.426 409.935 53.9082 272.227C-184.609 134.519 -489.6 216.241 -627.308 454.758Z" stroke="#707070"/>
</g>
<g opacity="0.7">
<path opacity="0.7" d="M425.98 -153.38C312.096 -153.38 219.774 -61.0584 219.774 52.826C219.774 166.71 312.096 259.032 425.98 259.032C539.864 259.032 632.186 166.71 632.186 52.826C632.186 -61.0584 539.864 -153.38 425.98 -153.38Z" fill="url(#paint7_linear)"/>
<path opacity="0.7" d="M425.98 -152.88C312.372 -152.88 220.274 -60.7823 220.274 52.826C220.274 166.434 312.372 258.532 425.98 258.532C539.588 258.532 631.686 166.434 631.686 52.826C631.686 -60.7823 539.588 -152.88 425.98 -152.88Z" stroke="#707070"/>
</g>
<g opacity="0.5">
<path opacity="0.5" d="M17.768 134.935C-146.359 134.935 -279.411 267.987 -279.411 432.114C-279.411 596.242 -146.359 729.293 17.768 729.293C181.895 729.293 314.947 596.242 314.947 432.114C314.947 267.987 181.895 134.935 17.768 134.935Z" fill="url(#paint8_linear)"/>
<path opacity="0.5" d="M17.768 135.435C-146.083 135.435 -278.911 268.263 -278.911 432.114C-278.911 595.966 -146.083 728.793 17.768 728.793C181.619 728.793 314.447 595.966 314.447 432.114C314.447 268.263 181.619 135.435 17.768 135.435Z" stroke="#707070"/>
</g>
</g>
<g opacity="0.31">
<g opacity="0.1">
<path opacity="0.1" d="M220.241 -151.514C56.1136 -151.514 -76.9379 -18.4622 -76.9379 145.665C-76.9379 309.793 56.1136 442.844 220.241 442.844C384.368 442.844 517.42 309.793 517.42 145.665C517.42 -18.4622 384.368 -151.514 220.241 -151.514Z" fill="url(#paint9_linear)"/>
<path opacity="0.1" d="M220.241 -151.014C56.3898 -151.014 -76.4379 -18.186 -76.4379 145.665C-76.4379 309.517 56.3898 442.344 220.241 442.344C384.092 442.344 516.92 309.517 516.92 145.665C516.92 -18.186 384.092 -151.014 220.241 -151.014Z" stroke="#707070"/>
</g>
<g opacity="0.1">
<path opacity="0.1" d="M-195.435 204.916C-471.127 204.916 -694.62 428.409 -694.62 704.101C-694.62 979.794 -471.127 1203.29 -195.435 1203.29C80.2573 1203.29 303.75 979.794 303.75 704.101C303.75 428.409 80.2573 204.916 -195.435 204.916Z" fill="url(#paint10_linear)"/>
<path opacity="0.1" d="M-195.435 205.416C-470.851 205.416 -694.12 428.685 -694.12 704.101C-694.12 979.517 -470.851 1202.79 -195.435 1202.79C79.9811 1202.79 303.25 979.517 303.25 704.101C303.25 428.685 79.9811 205.416 -195.435 205.416Z" stroke="#707070"/>
</g>
<g opacity="0.1">
<path opacity="0.1" d="M425.98 -153.38C312.096 -153.38 219.774 -61.0584 219.774 52.826C219.774 166.71 312.096 259.032 425.98 259.032C539.864 259.032 632.186 166.71 632.186 52.826C632.186 -61.0584 539.864 -153.38 425.98 -153.38Z" fill="url(#paint11_linear)"/>
<path opacity="0.1" d="M425.98 -152.88C312.372 -152.88 220.274 -60.7823 220.274 52.826C220.274 166.434 312.372 258.532 425.98 258.532C539.588 258.532 631.686 166.434 631.686 52.826C631.686 -60.7823 539.588 -152.88 425.98 -152.88Z" stroke="#707070"/>
</g>
<g opacity="0.1">
<path opacity="0.1" d="M17.768 134.935C-146.359 134.935 -279.411 267.987 -279.411 432.114C-279.411 596.242 -146.359 729.293 17.768 729.293C181.895 729.293 314.947 596.242 314.947 432.114C314.947 267.987 181.895 134.935 17.768 134.935Z" fill="url(#paint12_linear)"/>
<path opacity="0.1" d="M17.768 135.435C-146.083 135.435 -278.911 268.263 -278.911 432.114C-278.911 595.966 -146.083 728.793 17.768 728.793C181.619 728.793 314.447 595.966 314.447 432.114C314.447 268.263 181.619 135.435 17.768 135.435Z" stroke="#707070"/>
</g>
<g opacity="0.69">
<path opacity="0.69" d="M220.241 -151.514C56.1136 -151.514 -76.9379 -18.4622 -76.9379 145.665C-76.9379 309.793 56.1136 442.844 220.241 442.844C384.368 442.844 517.42 309.793 517.42 145.665C517.42 -18.4622 384.368 -151.514 220.241 -151.514Z" fill="url(#paint13_linear)"/>
<path opacity="0.69" d="M220.241 -151.014C56.3898 -151.014 -76.4379 -18.186 -76.4379 145.665C-76.4379 309.517 56.3898 442.344 220.241 442.344C384.092 442.344 516.92 309.517 516.92 145.665C516.92 -18.186 384.092 -151.014 220.241 -151.014Z" stroke="#707070"/>
</g>
<g opacity="0.7">
<path opacity="0.7" d="M-627.741 454.508C-765.587 693.265 -683.783 998.561 -445.027 1136.41C-206.27 1274.25 99.0264 1192.45 236.873 953.693C374.719 714.937 292.915 409.64 54.1581 271.794C-184.598 133.948 -489.895 215.752 -627.741 454.508Z" fill="url(#paint14_linear)"/>
<path opacity="0.7" d="M-627.308 454.758C-765.016 693.275 -683.294 998.266 -444.777 1135.97C-206.259 1273.68 98.7315 1191.96 236.44 953.443C374.148 714.926 292.426 409.935 53.9082 272.227C-184.609 134.519 -489.6 216.241 -627.308 454.758Z" stroke="#707070"/>
</g>
<g opacity="0.7">
<path opacity="0.7" d="M425.98 -153.38C312.096 -153.38 219.774 -61.0584 219.774 52.826C219.774 166.71 312.096 259.032 425.98 259.032C539.864 259.032 632.186 166.71 632.186 52.826C632.186 -61.0584 539.864 -153.38 425.98 -153.38Z" fill="url(#paint15_linear)"/>
<path opacity="0.7" d="M425.98 -152.88C312.372 -152.88 220.274 -60.7823 220.274 52.826C220.274 166.434 312.372 258.532 425.98 258.532C539.588 258.532 631.686 166.434 631.686 52.826C631.686 -60.7823 539.588 -152.88 425.98 -152.88Z" stroke="#707070"/>
</g>
<g opacity="0.5">
<path opacity="0.5" d="M17.768 134.935C-146.359 134.935 -279.411 267.987 -279.411 432.114C-279.411 596.242 -146.359 729.293 17.768 729.293C181.895 729.293 314.947 596.242 314.947 432.114C314.947 267.987 181.895 134.935 17.768 134.935Z" fill="url(#paint16_linear)"/>
<path opacity="0.5" d="M17.768 135.435C-146.083 135.435 -278.911 268.263 -278.911 432.114C-278.911 595.966 -146.083 728.793 17.768 728.793C181.619 728.793 314.447 595.966 314.447 432.114C314.447 268.263 181.619 135.435 17.768 135.435Z" stroke="#707070"/>
</g>
<g opacity="0.69">
<path opacity="0.69" d="M220.241 -151.513C56.1136 -151.513 -76.9379 -18.4612 -76.9379 145.666C-76.9379 309.794 56.1136 442.845 220.241 442.845C384.368 442.845 517.42 309.794 517.42 145.666C517.42 -18.4612 384.368 -151.513 220.241 -151.513Z" fill="url(#paint17_linear)"/>
<path opacity="0.69" d="M220.241 -151.013C56.3898 -151.013 -76.4379 -18.1851 -76.4379 145.666C-76.4379 309.518 56.3898 442.345 220.241 442.345C384.092 442.345 516.92 309.518 516.92 145.666C516.92 -18.1851 384.092 -151.013 220.241 -151.013Z" stroke="#707070"/>
</g>
</g>
<g opacity="0.1">
<path opacity="0.1" d="M1605.5 1384C1813.44 1384 1982 1215.44 1982 1007.5C1982 799.565 1813.44 631 1605.5 631C1397.56 631 1229 799.565 1229 1007.5C1229 1215.44 1397.56 1384 1605.5 1384Z" fill="url(#paint18_linear)"/>
<path opacity="0.1" d="M1605.5 1383.5C1813.16 1383.5 1981.5 1215.16 1981.5 1007.5C1981.5 799.841 1813.16 631.5 1605.5 631.5C1397.84 631.5 1229.5 799.841 1229.5 1007.5C1229.5 1215.16 1397.84 1383.5 1605.5 1383.5Z" stroke="#707070"/>
</g>
<g opacity="0.1">
<path opacity="0.1" d="M2131.5 932C2480.82 932 2764 648.82 2764 299.5C2764 -49.8201 2480.82 -333 2131.5 -333C1782.18 -333 1499 -49.8201 1499 299.5C1499 648.82 1782.18 932 2131.5 932Z" fill="url(#paint19_linear)"/>
<path opacity="0.1" d="M2131.5 931.5C2480.54 931.5 2763.5 648.544 2763.5 299.5C2763.5 -49.544 2480.54 -332.5 2131.5 -332.5C1782.46 -332.5 1499.5 -49.544 1499.5 299.5C1499.5 648.544 1782.46 931.5 2131.5 931.5Z" stroke="#707070"/>
</g>
<g opacity="0.1">
<path opacity="0.1" d="M1344.5 1386C1488.92 1386 1606 1268.92 1606 1124.5C1606 980.078 1488.92 863 1344.5 863C1200.08 863 1083 980.078 1083 1124.5C1083 1268.92 1200.08 1386 1344.5 1386Z" fill="url(#paint20_linear)"/>
<path opacity="0.1" d="M1344.5 1385.5C1488.65 1385.5 1605.5 1268.65 1605.5 1124.5C1605.5 980.354 1488.65 863.5 1344.5 863.5C1200.35 863.5 1083.5 980.354 1083.5 1124.5C1083.5 1268.65 1200.35 1385.5 1344.5 1385.5Z" stroke="#707070"/>
</g>
<g opacity="0.1">
<path opacity="0.1" d="M1861.5 1021C2069.44 1021 2238 852.435 2238 644.5C2238 436.565 2069.44 268 1861.5 268C1653.56 268 1485 436.565 1485 644.5C1485 852.435 1653.56 1021 1861.5 1021Z" fill="url(#paint21_linear)"/>
<path opacity="0.1" d="M1861.5 1020.5C2069.16 1020.5 2237.5 852.159 2237.5 644.5C2237.5 436.841 2069.16 268.5 1861.5 268.5C1653.84 268.5 1485.5 436.841 1485.5 644.5C1485.5 852.159 1653.84 1020.5 1861.5 1020.5Z" stroke="#707070"/>
</g>
<g opacity="0.1">
<path opacity="0.1" d="M1605.5 1384C1813.44 1384 1982 1215.44 1982 1007.5C1982 799.565 1813.44 631 1605.5 631C1397.56 631 1229 799.565 1229 1007.5C1229 1215.44 1397.56 1384 1605.5 1384Z" fill="url(#paint22_linear)"/>
<path opacity="0.1" d="M1605.5 1383.5C1813.16 1383.5 1981.5 1215.16 1981.5 1007.5C1981.5 799.841 1813.16 631.5 1605.5 631.5C1397.84 631.5 1229.5 799.841 1229.5 1007.5C1229.5 1215.16 1397.84 1383.5 1605.5 1383.5Z" stroke="#707070"/>
</g>
<g opacity="0.1">
<path opacity="0.1" d="M2131.5 932C2480.82 932 2764 648.82 2764 299.5C2764 -49.8201 2480.82 -333 2131.5 -333C1782.18 -333 1499 -49.8201 1499 299.5C1499 648.82 1782.18 932 2131.5 932Z" fill="url(#paint23_linear)"/>
<path opacity="0.1" d="M2131.5 931.5C2480.54 931.5 2763.5 648.544 2763.5 299.5C2763.5 -49.544 2480.54 -332.5 2131.5 -332.5C1782.46 -332.5 1499.5 -49.544 1499.5 299.5C1499.5 648.544 1782.46 931.5 2131.5 931.5Z" stroke="#707070"/>
</g>
<g opacity="0.1">
<path opacity="0.1" d="M1344.5 1386C1488.92 1386 1606 1268.92 1606 1124.5C1606 980.078 1488.92 863 1344.5 863C1200.08 863 1083 980.078 1083 1124.5C1083 1268.92 1200.08 1386 1344.5 1386Z" fill="url(#paint24_linear)"/>
<path opacity="0.1" d="M1344.5 1385.5C1488.65 1385.5 1605.5 1268.65 1605.5 1124.5C1605.5 980.354 1488.65 863.5 1344.5 863.5C1200.35 863.5 1083.5 980.354 1083.5 1124.5C1083.5 1268.65 1200.35 1385.5 1344.5 1385.5Z" stroke="#707070"/>
</g>
<g opacity="0.1">
<path opacity="0.1" d="M1861.5 1021C2069.44 1021 2238 852.435 2238 644.5C2238 436.565 2069.44 268 1861.5 268C1653.56 268 1485 436.565 1485 644.5C1485 852.435 1653.56 1021 1861.5 1021Z" fill="url(#paint25_linear)"/>
<path opacity="0.1" d="M1861.5 1020.5C2069.16 1020.5 2237.5 852.159 2237.5 644.5C2237.5 436.841 2069.16 268.5 1861.5 268.5C1653.84 268.5 1485.5 436.841 1485.5 644.5C1485.5 852.159 1653.84 1020.5 1861.5 1020.5Z" stroke="#707070"/>
</g>
<g opacity="0.31">
<g opacity="0.1">
<path opacity="0.1" d="M1605.5 1384C1813.44 1384 1982 1215.44 1982 1007.5C1982 799.565 1813.44 631 1605.5 631C1397.56 631 1229 799.565 1229 1007.5C1229 1215.44 1397.56 1384 1605.5 1384Z" fill="url(#paint26_linear)"/>
<path opacity="0.1" d="M1605.5 1383.5C1813.16 1383.5 1981.5 1215.16 1981.5 1007.5C1981.5 799.841 1813.16 631.5 1605.5 631.5C1397.84 631.5 1229.5 799.841 1229.5 1007.5C1229.5 1215.16 1397.84 1383.5 1605.5 1383.5Z" stroke="#707070"/>
</g>
<g opacity="0.1">
<path opacity="0.1" d="M2131.5 932C2480.82 932 2764 648.82 2764 299.5C2764 -49.82 2480.82 -333 2131.5 -333C1782.18 -333 1499 -49.82 1499 299.5C1499 648.82 1782.18 932 2131.5 932Z" fill="url(#paint27_linear)"/>
<path opacity="0.1" d="M2131.5 931.5C2480.54 931.5 2763.5 648.544 2763.5 299.5C2763.5 -49.5439 2480.54 -332.5 2131.5 -332.5C1782.46 -332.5 1499.5 -49.5439 1499.5 299.5C1499.5 648.544 1782.46 931.5 2131.5 931.5Z" stroke="#707070"/>
</g>
<g opacity="0.1">
<path opacity="0.1" d="M1344.5 1386C1488.92 1386 1606 1268.92 1606 1124.5C1606 980.078 1488.92 863 1344.5 863C1200.08 863 1083 980.078 1083 1124.5C1083 1268.92 1200.08 1386 1344.5 1386Z" fill="url(#paint28_linear)"/>
<path opacity="0.1" d="M1344.5 1385.5C1488.65 1385.5 1605.5 1268.65 1605.5 1124.5C1605.5 980.354 1488.65 863.5 1344.5 863.5C1200.35 863.5 1083.5 980.354 1083.5 1124.5C1083.5 1268.65 1200.35 1385.5 1344.5 1385.5Z" stroke="#707070"/>
</g>
<g opacity="0.1">
<path opacity="0.1" d="M1861.5 1021C2069.44 1021 2238 852.434 2238 644.499C2238 436.564 2069.44 267.999 1861.5 267.999C1653.56 267.999 1485 436.564 1485 644.499C1485 852.434 1653.56 1021 1861.5 1021Z" fill="url(#paint29_linear)"/>
<path opacity="0.1" d="M1861.5 1020.5C2069.16 1020.5 2237.5 852.158 2237.5 644.499C2237.5 436.84 2069.16 268.499 1861.5 268.499C1653.84 268.499 1485.5 436.84 1485.5 644.499C1485.5 852.158 1653.84 1020.5 1861.5 1020.5Z" stroke="#707070"/>
</g>
<g opacity="0.69">
<path opacity="0.69" d="M1605.5 1384C1813.44 1384 1982 1215.44 1982 1007.5C1982 799.565 1813.44 631 1605.5 631C1397.56 631 1229 799.565 1229 1007.5C1229 1215.44 1397.56 1384 1605.5 1384Z" fill="url(#paint30_linear)"/>
<path opacity="0.69" d="M1605.5 1383.5C1813.16 1383.5 1981.5 1215.16 1981.5 1007.5C1981.5 799.841 1813.16 631.5 1605.5 631.5C1397.84 631.5 1229.5 799.841 1229.5 1007.5C1229.5 1215.16 1397.84 1383.5 1605.5 1383.5Z" stroke="#707070"/>
</g>
<g opacity="0.7">
<path opacity="0.7" d="M2679.59 615.813C2854.24 313.311 2750.6 -73.4977 2448.09 -248.148C2145.59 -422.797 1758.78 -319.152 1584.13 -16.65C1409.48 285.852 1513.13 672.661 1815.63 847.31C2118.13 1021.96 2504.94 918.315 2679.59 615.813Z" fill="url(#paint31_linear)"/>
<path opacity="0.7" d="M2679.16 615.563C2853.67 313.3 2750.11 -73.2028 2447.84 -247.715C2145.58 -422.226 1759.08 -318.663 1584.57 -16.4C1410.05 285.863 1513.62 672.366 1815.88 846.877C2118.14 1021.39 2504.65 917.826 2679.16 615.563Z" stroke="#707070"/>
</g>
<g opacity="0.7">
<path opacity="0.7" d="M1344.5 1386C1488.92 1386 1606 1268.92 1606 1124.5C1606 980.078 1488.92 863 1344.5 863C1200.08 863 1083 980.078 1083 1124.5C1083 1268.92 1200.08 1386 1344.5 1386Z" fill="url(#paint32_linear)"/>
<path opacity="0.7" d="M1344.5 1385.5C1488.65 1385.5 1605.5 1268.65 1605.5 1124.5C1605.5 980.354 1488.65 863.5 1344.5 863.5C1200.35 863.5 1083.5 980.354 1083.5 1124.5C1083.5 1268.65 1200.35 1385.5 1344.5 1385.5Z" stroke="#707070"/>
</g>
<g opacity="0.5">
<path opacity="0.5" d="M1861.5 1021C2069.44 1021 2238 852.434 2238 644.499C2238 436.564 2069.44 267.999 1861.5 267.999C1653.56 267.999 1485 436.564 1485 644.499C1485 852.434 1653.56 1021 1861.5 1021Z" fill="url(#paint33_linear)"/>
<path opacity="0.5" d="M1861.5 1020.5C2069.16 1020.5 2237.5 852.158 2237.5 644.499C2237.5 436.84 2069.16 268.499 1861.5 268.499C1653.84 268.499 1485.5 436.84 1485.5 644.499C1485.5 852.158 1653.84 1020.5 1861.5 1020.5Z" stroke="#707070"/>
</g>
</g>
<g opacity="0.31">
<g opacity="0.1">
<path opacity="0.1" d="M1605.5 1384C1813.44 1384 1982 1215.44 1982 1007.5C1982 799.565 1813.44 631 1605.5 631C1397.56 631 1229 799.565 1229 1007.5C1229 1215.44 1397.56 1384 1605.5 1384Z" fill="url(#paint34_linear)"/>
<path opacity="0.1" d="M1605.5 1383.5C1813.16 1383.5 1981.5 1215.16 1981.5 1007.5C1981.5 799.841 1813.16 631.5 1605.5 631.5C1397.84 631.5 1229.5 799.841 1229.5 1007.5C1229.5 1215.16 1397.84 1383.5 1605.5 1383.5Z" stroke="#707070"/>
</g>
<g opacity="0.1">
<path opacity="0.1" d="M2131.5 932C2480.82 932 2764 648.82 2764 299.5C2764 -49.82 2480.82 -333 2131.5 -333C1782.18 -333 1499 -49.82 1499 299.5C1499 648.82 1782.18 932 2131.5 932Z" fill="url(#paint35_linear)"/>
<path opacity="0.1" d="M2131.5 931.5C2480.54 931.5 2763.5 648.544 2763.5 299.5C2763.5 -49.5439 2480.54 -332.5 2131.5 -332.5C1782.46 -332.5 1499.5 -49.5439 1499.5 299.5C1499.5 648.544 1782.46 931.5 2131.5 931.5Z" stroke="#707070"/>
</g>
<g opacity="0.1">
<path opacity="0.1" d="M1344.5 1386C1488.92 1386 1606 1268.92 1606 1124.5C1606 980.078 1488.92 863 1344.5 863C1200.08 863 1083 980.078 1083 1124.5C1083 1268.92 1200.08 1386 1344.5 1386Z" fill="url(#paint36_linear)"/>
<path opacity="0.1" d="M1344.5 1385.5C1488.65 1385.5 1605.5 1268.65 1605.5 1124.5C1605.5 980.354 1488.65 863.5 1344.5 863.5C1200.35 863.5 1083.5 980.354 1083.5 1124.5C1083.5 1268.65 1200.35 1385.5 1344.5 1385.5Z" stroke="#707070"/>
</g>
<g opacity="0.1">
<path opacity="0.1" d="M1861.5 1021C2069.44 1021 2238 852.434 2238 644.499C2238 436.564 2069.44 267.999 1861.5 267.999C1653.56 267.999 1485 436.564 1485 644.499C1485 852.434 1653.56 1021 1861.5 1021Z" fill="url(#paint37_linear)"/>
<path opacity="0.1" d="M1861.5 1020.5C2069.16 1020.5 2237.5 852.158 2237.5 644.499C2237.5 436.84 2069.16 268.499 1861.5 268.499C1653.84 268.499 1485.5 436.84 1485.5 644.499C1485.5 852.158 1653.84 1020.5 1861.5 1020.5Z" stroke="#707070"/>
</g>
<g opacity="0.69">
<path opacity="0.69" d="M1605.5 1384C1813.44 1384 1982 1215.44 1982 1007.5C1982 799.565 1813.44 631 1605.5 631C1397.56 631 1229 799.565 1229 1007.5C1229 1215.44 1397.56 1384 1605.5 1384Z" fill="url(#paint38_linear)"/>
<path opacity="0.69" d="M1605.5 1383.5C1813.16 1383.5 1981.5 1215.16 1981.5 1007.5C1981.5 799.841 1813.16 631.5 1605.5 631.5C1397.84 631.5 1229.5 799.841 1229.5 1007.5C1229.5 1215.16 1397.84 1383.5 1605.5 1383.5Z" stroke="#707070"/>
</g>
<g opacity="0.7">
<path opacity="0.7" d="M2679.59 615.813C2854.24 313.311 2750.6 -73.4977 2448.09 -248.148C2145.59 -422.797 1758.78 -319.152 1584.13 -16.65C1409.48 285.852 1513.13 672.661 1815.63 847.31C2118.13 1021.96 2504.94 918.315 2679.59 615.813Z" fill="url(#paint39_linear)"/>
<path opacity="0.7" d="M2679.16 615.563C2853.67 313.3 2750.11 -73.2028 2447.84 -247.715C2145.58 -422.226 1759.08 -318.663 1584.57 -16.4C1410.05 285.863 1513.62 672.366 1815.88 846.877C2118.14 1021.39 2504.65 917.826 2679.16 615.563Z" stroke="#707070"/>
</g>
<g opacity="0.7">
<path opacity="0.7" d="M1344.5 1386C1488.92 1386 1606 1268.92 1606 1124.5C1606 980.078 1488.92 863 1344.5 863C1200.08 863 1083 980.078 1083 1124.5C1083 1268.92 1200.08 1386 1344.5 1386Z" fill="url(#paint40_linear)"/>
<path opacity="0.7" d="M1344.5 1385.5C1488.65 1385.5 1605.5 1268.65 1605.5 1124.5C1605.5 980.354 1488.65 863.5 1344.5 863.5C1200.35 863.5 1083.5 980.354 1083.5 1124.5C1083.5 1268.65 1200.35 1385.5 1344.5 1385.5Z" stroke="#707070"/>
</g>
<g opacity="0.5">
<path opacity="0.5" d="M1861.5 1021C2069.44 1021 2238 852.434 2238 644.499C2238 436.564 2069.44 267.999 1861.5 267.999C1653.56 267.999 1485 436.564 1485 644.499C1485 852.434 1653.56 1021 1861.5 1021Z" fill="url(#paint41_linear)"/>
<path opacity="0.5" d="M1861.5 1020.5C2069.16 1020.5 2237.5 852.158 2237.5 644.499C2237.5 436.84 2069.16 268.499 1861.5 268.499C1653.84 268.499 1485.5 436.84 1485.5 644.499C1485.5 852.158 1653.84 1020.5 1861.5 1020.5Z" stroke="#707070"/>
</g>
<g opacity="0.7">
<path opacity="0.7" d="M1764.59 835.813C1939.24 533.311 1835.6 146.502 1533.09 -28.1476C1230.59 -202.797 843.782 -99.1524 669.133 203.35C494.483 505.852 598.128 892.661 900.63 1067.31C1203.13 1241.96 1589.94 1138.32 1764.59 835.813Z" fill="url(#paint42_linear)"/>
<path opacity="0.7" d="M1764.16 835.563C1938.67 533.3 1835.11 146.797 1532.84 -27.7146C1230.58 -202.226 844.077 -98.6633 669.566 203.6C495.054 505.863 598.617 892.366 900.88 1066.88C1203.14 1241.39 1589.65 1137.83 1764.16 835.563Z" stroke="#707070"/>
</g>
<g opacity="0.7">
<path opacity="0.7" d="M1138.59 1160.27C1229.85 1002.22 1175.69 800.108 1017.63 708.853C859.574 617.598 657.466 671.753 566.212 829.811C474.957 987.869 529.111 1189.98 687.169 1281.23C845.227 1372.49 1047.34 1318.33 1138.59 1160.27Z" fill="url(#paint43_linear)"/>
<path opacity="0.7" d="M1138.16 1160.02C1229.27 1002.2 1175.2 800.403 1017.38 709.286C859.564 618.169 657.761 672.242 566.645 830.061C475.528 987.88 529.601 1189.68 687.419 1280.8C845.238 1371.92 1047.04 1317.84 1138.16 1160.02Z" stroke="#707070"/>
</g>
</g>
<g opacity="0.31">
<g opacity="0.1">
<path opacity="0.1" d="M1605.5 1384C1813.44 1384 1982 1215.44 1982 1007.5C1982 799.565 1813.44 631 1605.5 631C1397.56 631 1229 799.565 1229 1007.5C1229 1215.44 1397.56 1384 1605.5 1384Z" fill="url(#paint44_linear)"/>
<path opacity="0.1" d="M1605.5 1383.5C1813.16 1383.5 1981.5 1215.16 1981.5 1007.5C1981.5 799.841 1813.16 631.5 1605.5 631.5C1397.84 631.5 1229.5 799.841 1229.5 1007.5C1229.5 1215.16 1397.84 1383.5 1605.5 1383.5Z" stroke="#707070"/>
</g>
<g opacity="0.1">
<path opacity="0.1" d="M2131.5 932C2480.82 932 2764 648.82 2764 299.5C2764 -49.82 2480.82 -333 2131.5 -333C1782.18 -333 1499 -49.82 1499 299.5C1499 648.82 1782.18 932 2131.5 932Z" fill="url(#paint45_linear)"/>
<path opacity="0.1" d="M2131.5 931.5C2480.54 931.5 2763.5 648.544 2763.5 299.5C2763.5 -49.5439 2480.54 -332.5 2131.5 -332.5C1782.46 -332.5 1499.5 -49.5439 1499.5 299.5C1499.5 648.544 1782.46 931.5 2131.5 931.5Z" stroke="#707070"/>
</g>
<g opacity="0.1">
<path opacity="0.1" d="M1344.5 1386C1488.92 1386 1606 1268.92 1606 1124.5C1606 980.078 1488.92 863 1344.5 863C1200.08 863 1083 980.078 1083 1124.5C1083 1268.92 1200.08 1386 1344.5 1386Z" fill="url(#paint46_linear)"/>
<path opacity="0.1" d="M1344.5 1385.5C1488.65 1385.5 1605.5 1268.65 1605.5 1124.5C1605.5 980.354 1488.65 863.5 1344.5 863.5C1200.35 863.5 1083.5 980.354 1083.5 1124.5C1083.5 1268.65 1200.35 1385.5 1344.5 1385.5Z" stroke="#707070"/>
</g>
<g opacity="0.1">
<path opacity="0.1" d="M1861.5 1021C2069.44 1021 2238 852.434 2238 644.499C2238 436.564 2069.44 267.999 1861.5 267.999C1653.56 267.999 1485 436.564 1485 644.499C1485 852.434 1653.56 1021 1861.5 1021Z" fill="url(#paint47_linear)"/>
<path opacity="0.1" d="M1861.5 1020.5C2069.16 1020.5 2237.5 852.158 2237.5 644.499C2237.5 436.84 2069.16 268.499 1861.5 268.499C1653.84 268.499 1485.5 436.84 1485.5 644.499C1485.5 852.158 1653.84 1020.5 1861.5 1020.5Z" stroke="#707070"/>
</g>
<g opacity="0.69">
<path opacity="0.69" d="M1605.5 1384C1813.44 1384 1982 1215.44 1982 1007.5C1982 799.565 1813.44 631 1605.5 631C1397.56 631 1229 799.565 1229 1007.5C1229 1215.44 1397.56 1384 1605.5 1384Z" fill="url(#paint48_linear)"/>
<path opacity="0.69" d="M1605.5 1383.5C1813.16 1383.5 1981.5 1215.16 1981.5 1007.5C1981.5 799.841 1813.16 631.5 1605.5 631.5C1397.84 631.5 1229.5 799.841 1229.5 1007.5C1229.5 1215.16 1397.84 1383.5 1605.5 1383.5Z" stroke="#707070"/>
</g>
<g opacity="0.7">
<path opacity="0.7" d="M2679.59 615.813C2854.24 313.311 2750.6 -73.4977 2448.09 -248.148C2145.59 -422.797 1758.78 -319.152 1584.13 -16.65C1409.48 285.852 1513.13 672.661 1815.63 847.31C2118.13 1021.96 2504.94 918.315 2679.59 615.813Z" fill="url(#paint49_linear)"/>
<path opacity="0.7" d="M2679.16 615.563C2853.67 313.3 2750.11 -73.2028 2447.84 -247.715C2145.58 -422.226 1759.08 -318.663 1584.57 -16.4C1410.05 285.863 1513.62 672.366 1815.88 846.877C2118.14 1021.39 2504.65 917.826 2679.16 615.563Z" stroke="#707070"/>
</g>
<g opacity="0.7">
<path opacity="0.7" d="M1344.5 1386C1488.92 1386 1606 1268.92 1606 1124.5C1606 980.078 1488.92 863 1344.5 863C1200.08 863 1083 980.078 1083 1124.5C1083 1268.92 1200.08 1386 1344.5 1386Z" fill="url(#paint50_linear)"/>
<path opacity="0.7" d="M1344.5 1385.5C1488.65 1385.5 1605.5 1268.65 1605.5 1124.5C1605.5 980.354 1488.65 863.5 1344.5 863.5C1200.35 863.5 1083.5 980.354 1083.5 1124.5C1083.5 1268.65 1200.35 1385.5 1344.5 1385.5Z" stroke="#707070"/>
</g>
<g opacity="0.5">
<path opacity="0.5" d="M1861.5 1021C2069.44 1021 2238 852.434 2238 644.499C2238 436.564 2069.44 267.999 1861.5 267.999C1653.56 267.999 1485 436.564 1485 644.499C1485 852.434 1653.56 1021 1861.5 1021Z" fill="url(#paint51_linear)"/>
<path opacity="0.5" d="M1861.5 1020.5C2069.16 1020.5 2237.5 852.158 2237.5 644.499C2237.5 436.84 2069.16 268.499 1861.5 268.499C1653.84 268.499 1485.5 436.84 1485.5 644.499C1485.5 852.158 1653.84 1020.5 1861.5 1020.5Z" stroke="#707070"/>
</g>
<g opacity="0.7">
<path opacity="0.7" d="M821.606 1166.32C949.864 944.171 873.75 660.11 651.601 531.852C429.452 403.594 145.391 479.708 17.1326 701.857C-111.125 924.006 -35.0113 1208.07 187.138 1336.33C409.287 1464.58 693.348 1388.47 821.606 1166.32Z" fill="url(#paint52_linear)"/>
<path opacity="0.7" d="M821.173 1166.07C949.293 944.16 873.261 660.405 651.351 532.285C429.441 404.165 145.685 480.197 17.5656 702.107C-110.554 924.017 -34.5222 1207.77 187.388 1335.89C409.298 1464.01 693.053 1387.98 821.173 1166.07Z" stroke="#707070"/>
</g>
<g opacity="0.7">
<path opacity="0.7" d="M1138.59 1160.27C1229.85 1002.22 1175.69 800.108 1017.63 708.853C859.574 617.598 657.466 671.753 566.212 829.811C474.957 987.869 529.111 1189.98 687.169 1281.23C845.227 1372.49 1047.34 1318.33 1138.59 1160.27Z" fill="url(#paint53_linear)"/>
<path opacity="0.7" d="M1138.16 1160.02C1229.27 1002.2 1175.2 800.403 1017.38 709.286C859.564 618.169 657.761 672.242 566.645 830.061C475.528 987.88 529.601 1189.68 687.419 1280.8C845.238 1371.92 1047.04 1317.84 1138.16 1160.02Z" stroke="#707070"/>
</g>
<g opacity="0.69">
<path opacity="0.69" d="M419 605C664.215 605 863 406.214 863 161C863 -84.2144 664.215 -283 419 -283C173.786 -283 -24.9999 -84.2144 -24.9999 161C-24.9999 406.214 173.786 605 419 605Z" fill="url(#paint54_linear)"/>
<path opacity="0.69" d="M419 604.5C663.938 604.5 862.5 405.938 862.5 161C862.5 -83.9383 663.938 -282.5 419 -282.5C174.062 -282.5 -24.4999 -83.9383 -24.4999 161C-24.4999 405.938 174.062 604.5 419 604.5Z" stroke="#707070"/>
</g>
</g>
<path opacity="0.8" d="M1588.71 -276.8L1399.99 156.517C1399.99 156.517 1286.83 445.073 1399.99 526.171C1513.15 607.269 1670.63 547.86 1739.47 639.331C1808.31 730.802 1757.39 878.852 1833.77 978.809C1910.15 1078.77 2256.23 978.809 2256.23 978.809L2373.16 413.009C2373.16 413.009 2263.77 -47.1728 2229.83 -54.7168C2195.88 -62.2608 1588.71 -276.8 1588.71 -276.8Z" fill="url(#paint55_linear)"/>
<path d="M1588.71 -277.8L1399.99 155.517C1399.99 155.517 1286.83 444.073 1399.99 525.171C1513.15 606.269 1670.63 546.86 1739.47 638.331C1808.31 729.802 1757.39 877.852 1833.77 977.809C1910.15 1077.77 2256.23 977.809 2256.23 977.809L2373.16 412.009C2373.16 412.009 2263.77 -48.1728 2229.83 -55.7168C2195.88 -63.2608 1588.71 -277.8 1588.71 -277.8Z" fill="url(#paint56_linear)"/>
<g opacity="0.07">
<path opacity="0.8" d="M376.01 1429.24C376.01 1429.24 534.757 1470.83 606.252 1342.56C677.747 1214.29 790.299 1093.12 701.992 985.473C613.685 877.824 446.172 894.425 403.364 788.235C360.557 682.045 448.093 552.217 400.196 435.875C352.298 319.534 -7.90349 326.458 -7.90349 326.458L-267.402 842.735C-267.402 842.735 -280.919 1315.6 -250.08 1331.68C-219.241 1347.76 376.01 1429.24 376.01 1429.24Z" fill="url(#paint57_linear)"/>
</g>
</g>
<defs>
<linearGradient id="paint0_linear" x1="551.04" y1="-2.49664e-06" x2="952.704" y2="1694.26" gradientUnits="userSpaceOnUse">
<stop stop-color="#262626"/>
<stop offset="1"/>
</linearGradient>
<linearGradient id="paint1_linear" x1="220.241" y1="442.844" x2="220.241" y2="-151.514" gradientUnits="userSpaceOnUse">
<stop stop-color="white"/>
<stop offset="1" stop-color="#808080"/>
</linearGradient>
<linearGradient id="paint2_linear" x1="-195.435" y1="1203.29" x2="-195.435" y2="204.916" gradientUnits="userSpaceOnUse">
<stop stop-color="white"/>
<stop offset="1" stop-color="#808080"/>
</linearGradient>
<linearGradient id="paint3_linear" x1="425.98" y1="259.032" x2="425.98" y2="-153.38" gradientUnits="userSpaceOnUse">
<stop stop-color="white"/>
<stop offset="1" stop-color="#808080"/>
</linearGradient>
<linearGradient id="paint4_linear" x1="17.768" y1="729.293" x2="17.768" y2="134.935" gradientUnits="userSpaceOnUse">
<stop stop-color="white"/>
<stop offset="1" stop-color="#808080"/>
</linearGradient>
<linearGradient id="paint5_linear" x1="220.241" y1="442.844" x2="220.241" y2="-151.514" gradientUnits="userSpaceOnUse">
<stop stop-color="#0700DE"/>
<stop offset="1" stop-color="#07044B"/>
</linearGradient>
<linearGradient id="paint6_linear" x1="236.873" y1="953.693" x2="-627.741" y2="454.508" gradientUnits="userSpaceOnUse">
<stop stop-color="#75009E"/>
<stop offset="1" stop-color="#0700DE"/>
</linearGradient>
<linearGradient id="paint7_linear" x1="425.98" y1="259.032" x2="425.98" y2="-153.38" gradientUnits="userSpaceOnUse">
<stop stop-color="#8380DC"/>
<stop offset="1" stop-color="#1900FF"/>
</linearGradient>
<linearGradient id="paint8_linear" x1="17.768" y1="729.293" x2="17.768" y2="134.935" gradientUnits="userSpaceOnUse">
<stop stop-color="#75009E"/>
<stop offset="1" stop-color="#0700DE"/>
</linearGradient>
<linearGradient id="paint9_linear" x1="220.241" y1="442.844" x2="220.241" y2="-151.514" gradientUnits="userSpaceOnUse">
<stop stop-color="white"/>
<stop offset="1" stop-color="#808080"/>
</linearGradient>
<linearGradient id="paint10_linear" x1="-195.435" y1="1203.29" x2="-195.435" y2="204.916" gradientUnits="userSpaceOnUse">
<stop stop-color="white"/>
<stop offset="1" stop-color="#808080"/>
</linearGradient>
<linearGradient id="paint11_linear" x1="425.98" y1="259.032" x2="425.98" y2="-153.38" gradientUnits="userSpaceOnUse">
<stop stop-color="white"/>
<stop offset="1" stop-color="#808080"/>
</linearGradient>
<linearGradient id="paint12_linear" x1="17.768" y1="729.293" x2="17.768" y2="134.935" gradientUnits="userSpaceOnUse">
<stop stop-color="white"/>
<stop offset="1" stop-color="#808080"/>
</linearGradient>
<linearGradient id="paint13_linear" x1="220.241" y1="442.844" x2="220.241" y2="-151.514" gradientUnits="userSpaceOnUse">
<stop stop-color="#0700DE"/>
<stop offset="1" stop-color="#07044B"/>
</linearGradient>
<linearGradient id="paint14_linear" x1="236.873" y1="953.693" x2="-627.741" y2="454.508" gradientUnits="userSpaceOnUse">
<stop stop-color="#75009E"/>
<stop offset="1" stop-color="#0700DE"/>
</linearGradient>
<linearGradient id="paint15_linear" x1="425.98" y1="259.032" x2="425.98" y2="-153.38" gradientUnits="userSpaceOnUse">
<stop stop-color="#8380DC"/>
<stop offset="1" stop-color="#1900FF"/>
</linearGradient>
<linearGradient id="paint16_linear" x1="17.768" y1="729.293" x2="17.768" y2="134.935" gradientUnits="userSpaceOnUse">
<stop stop-color="#75009E"/>
<stop offset="1" stop-color="#0700DE"/>
</linearGradient>
<linearGradient id="paint17_linear" x1="220.241" y1="442.845" x2="220.241" y2="-151.513" gradientUnits="userSpaceOnUse">
<stop stop-color="#0700DE"/>
<stop offset="1" stop-color="#07044B"/>
</linearGradient>
<linearGradient id="paint18_linear" x1="1605.5" y1="631" x2="1605.5" y2="1384" gradientUnits="userSpaceOnUse">
<stop stop-color="white"/>
<stop offset="1" stop-color="#808080"/>
</linearGradient>
<linearGradient id="paint19_linear" x1="2131.5" y1="-333" x2="2131.5" y2="932" gradientUnits="userSpaceOnUse">
<stop stop-color="white"/>
<stop offset="1" stop-color="#808080"/>
</linearGradient>
<linearGradient id="paint20_linear" x1="1344.5" y1="863" x2="1344.5" y2="1386" gradientUnits="userSpaceOnUse">
<stop stop-color="white"/>
<stop offset="1" stop-color="#808080"/>
</linearGradient>
<linearGradient id="paint21_linear" x1="1861.5" y1="268" x2="1861.5" y2="1021" gradientUnits="userSpaceOnUse">
<stop stop-color="white"/>
<stop offset="1" stop-color="#808080"/>
</linearGradient>
<linearGradient id="paint22_linear" x1="1605.5" y1="631" x2="1605.5" y2="1384" gradientUnits="userSpaceOnUse">
<stop stop-color="white"/>
<stop offset="1" stop-color="#808080"/>
</linearGradient>
<linearGradient id="paint23_linear" x1="2131.5" y1="-333" x2="2131.5" y2="932" gradientUnits="userSpaceOnUse">
<stop stop-color="white"/>
<stop offset="1" stop-color="#808080"/>
</linearGradient>
<linearGradient id="paint24_linear" x1="1344.5" y1="863" x2="1344.5" y2="1386" gradientUnits="userSpaceOnUse">
<stop stop-color="white"/>
<stop offset="1" stop-color="#808080"/>
</linearGradient>
<linearGradient id="paint25_linear" x1="1861.5" y1="268" x2="1861.5" y2="1021" gradientUnits="userSpaceOnUse">
<stop stop-color="white"/>
<stop offset="1" stop-color="#808080"/>
</linearGradient>
<linearGradient id="paint26_linear" x1="1605.5" y1="631" x2="1605.5" y2="1384" gradientUnits="userSpaceOnUse">
<stop stop-color="white"/>
<stop offset="1" stop-color="#808080"/>
</linearGradient>
<linearGradient id="paint27_linear" x1="2131.5" y1="-333" x2="2131.5" y2="932" gradientUnits="userSpaceOnUse">
<stop stop-color="white"/>
<stop offset="1" stop-color="#808080"/>
</linearGradient>
<linearGradient id="paint28_linear" x1="1344.5" y1="863" x2="1344.5" y2="1386" gradientUnits="userSpaceOnUse">
<stop stop-color="white"/>
<stop offset="1" stop-color="#808080"/>
</linearGradient>
<linearGradient id="paint29_linear" x1="1861.5" y1="267.999" x2="1861.5" y2="1021" gradientUnits="userSpaceOnUse">
<stop stop-color="white"/>
<stop offset="1" stop-color="#808080"/>
</linearGradient>
<linearGradient id="paint30_linear" x1="1605.5" y1="631" x2="1605.5" y2="1384" gradientUnits="userSpaceOnUse">
<stop stop-color="#0700DE"/>
<stop offset="1" stop-color="#07044B"/>
</linearGradient>
<linearGradient id="paint31_linear" x1="1584.13" y1="-16.65" x2="2679.59" y2="615.813" gradientUnits="userSpaceOnUse">
<stop stop-color="#75009E"/>
<stop offset="1" stop-color="#0700DE"/>
</linearGradient>
<linearGradient id="paint32_linear" x1="1344.5" y1="863" x2="1344.5" y2="1386" gradientUnits="userSpaceOnUse">
<stop stop-color="#8380DC"/>
<stop offset="1" stop-color="#1900FF"/>
</linearGradient>
<linearGradient id="paint33_linear" x1="1861.5" y1="267.999" x2="1861.5" y2="1021" gradientUnits="userSpaceOnUse">
<stop stop-color="#75009E"/>
<stop offset="1" stop-color="#0700DE"/>
</linearGradient>
<linearGradient id="paint34_linear" x1="1605.5" y1="631" x2="1605.5" y2="1384" gradientUnits="userSpaceOnUse">
<stop stop-color="white"/>
<stop offset="1" stop-color="#808080"/>
</linearGradient>
<linearGradient id="paint35_linear" x1="2131.5" y1="-333" x2="2131.5" y2="932" gradientUnits="userSpaceOnUse">
<stop stop-color="white"/>
<stop offset="1" stop-color="#808080"/>
</linearGradient>
<linearGradient id="paint36_linear" x1="1344.5" y1="863" x2="1344.5" y2="1386" gradientUnits="userSpaceOnUse">
<stop stop-color="white"/>
<stop offset="1" stop-color="#808080"/>
</linearGradient>
<linearGradient id="paint37_linear" x1="1861.5" y1="267.999" x2="1861.5" y2="1021" gradientUnits="userSpaceOnUse">
<stop stop-color="white"/>
<stop offset="1" stop-color="#808080"/>
</linearGradient>
<linearGradient id="paint38_linear" x1="1605.5" y1="631" x2="1605.5" y2="1384" gradientUnits="userSpaceOnUse">
<stop stop-color="#0700DE"/>
<stop offset="1" stop-color="#07044B"/>
</linearGradient>
<linearGradient id="paint39_linear" x1="1584.13" y1="-16.65" x2="2679.59" y2="615.813" gradientUnits="userSpaceOnUse">
<stop stop-color="#75009E"/>
<stop offset="1" stop-color="#0700DE"/>
</linearGradient>
<linearGradient id="paint40_linear" x1="1344.5" y1="863" x2="1344.5" y2="1386" gradientUnits="userSpaceOnUse">
<stop stop-color="#8380DC"/>
<stop offset="1" stop-color="#1900FF"/>
</linearGradient>
<linearGradient id="paint41_linear" x1="1861.5" y1="267.999" x2="1861.5" y2="1021" gradientUnits="userSpaceOnUse">
<stop stop-color="#75009E"/>
<stop offset="1" stop-color="#0700DE"/>
</linearGradient>
<linearGradient id="paint42_linear" x1="669.133" y1="203.35" x2="1764.59" y2="835.813" gradientUnits="userSpaceOnUse">
<stop stop-color="#75009E"/>
<stop offset="1" stop-color="#0700DE"/>
</linearGradient>
<linearGradient id="paint43_linear" x1="566.212" y1="829.811" x2="1138.59" y2="1160.27" gradientUnits="userSpaceOnUse">
<stop stop-color="#75009E"/>
<stop offset="1" stop-color="#0700DE"/>
</linearGradient>
<linearGradient id="paint44_linear" x1="1605.5" y1="631" x2="1605.5" y2="1384" gradientUnits="userSpaceOnUse">
<stop stop-color="white"/>
<stop offset="1" stop-color="#808080"/>
</linearGradient>
<linearGradient id="paint45_linear" x1="2131.5" y1="-333" x2="2131.5" y2="932" gradientUnits="userSpaceOnUse">
<stop stop-color="white"/>
<stop offset="1" stop-color="#808080"/>
</linearGradient>
<linearGradient id="paint46_linear" x1="1344.5" y1="863" x2="1344.5" y2="1386" gradientUnits="userSpaceOnUse">
<stop stop-color="white"/>
<stop offset="1" stop-color="#808080"/>
</linearGradient>
<linearGradient id="paint47_linear" x1="1861.5" y1="267.999" x2="1861.5" y2="1021" gradientUnits="userSpaceOnUse">
<stop stop-color="white"/>
<stop offset="1" stop-color="#808080"/>
</linearGradient>
<linearGradient id="paint48_linear" x1="1605.5" y1="631" x2="1605.5" y2="1384" gradientUnits="userSpaceOnUse">
<stop stop-color="#0700DE"/>
<stop offset="1" stop-color="#07044B"/>
</linearGradient>
<linearGradient id="paint49_linear" x1="1584.13" y1="-16.65" x2="2679.59" y2="615.813" gradientUnits="userSpaceOnUse">
<stop stop-color="#75009E"/>
<stop offset="1" stop-color="#0700DE"/>
</linearGradient>
<linearGradient id="paint50_linear" x1="1344.5" y1="863" x2="1344.5" y2="1386" gradientUnits="userSpaceOnUse">
<stop stop-color="#8380DC"/>
<stop offset="1" stop-color="#1900FF"/>
</linearGradient>
<linearGradient id="paint51_linear" x1="1861.5" y1="267.999" x2="1861.5" y2="1021" gradientUnits="userSpaceOnUse">
<stop stop-color="#75009E"/>
<stop offset="1" stop-color="#0700DE"/>
</linearGradient>
<linearGradient id="paint52_linear" x1="17.1326" y1="701.857" x2="821.606" y2="1166.32" gradientUnits="userSpaceOnUse">
<stop stop-color="#75009E"/>
<stop offset="1" stop-color="#0700DE"/>
</linearGradient>
<linearGradient id="paint53_linear" x1="566.212" y1="829.811" x2="1138.59" y2="1160.27" gradientUnits="userSpaceOnUse">
<stop stop-color="#75009E"/>
<stop offset="1" stop-color="#0700DE"/>
</linearGradient>
<linearGradient id="paint54_linear" x1="419" y1="-283" x2="419" y2="605" gradientUnits="userSpaceOnUse">
<stop stop-color="#0700DE"/>
<stop offset="1" stop-color="#07044B"/>
</linearGradient>
<linearGradient id="paint55_linear" x1="1861.43" y1="-276.8" x2="1861.43" y2="1023.23" gradientUnits="userSpaceOnUse">
<stop stop-color="#9522EC"/>
<stop offset="1" stop-color="#2A1ABE"/>
</linearGradient>
<linearGradient id="paint56_linear" x1="1861.43" y1="-277.8" x2="1861.43" y2="1022.23" gradientUnits="userSpaceOnUse">
<stop stop-color="#9522EC"/>
<stop offset="1" stop-color="#2A1ABE"/>
</linearGradient>
<linearGradient id="paint57_linear" x1="109.975" y1="1428.77" x2="389.301" y2="386.955" gradientUnits="userSpaceOnUse">
<stop stop-color="#6075FF"/>
<stop offset="0.485" stop-color="#798AF8"/>
<stop offset="1" stop-color="#001180"/>
</linearGradient>
<clipPath id="clip0">
<rect width="1920" height="1080" fill="white"/>
</clipPath>
</defs>
</svg>
