{"locations": [{
    "id": 1,
    "longitude": 18.087202,
    "latitude": 59.293117
},
{
    "id": 2,
    "longitude": 18.087997,
    "latitude": 59.292212
},
{
    "id": 3,
    "longitude": 18.089514,
    "latitude": 59.293038
},
{
    "id": 4,
    "longitude": 18.090245,
    "latitude": 59.292345
},
{
    "id": 5,
    "longitude": 18.0882142,
    "latitude": 59.2936252
},
{
    "id": 6,
    "longitude": 18.0886698,
    "latitude": 59.2933227
}
]}